digraph G {
    rankdir=LR
    splines=line
    nodesep=.1;
    ranksep= 1.4;
    
    node [label=""];
        
    subgraph cluster_0 {
        color=white
        node [shape=plaintext];
        x1 x2 x3;
        label = "Вход";
    }

    subgraph cluster_1 {
        color=white;
        node [style=solid, shape=circle];
        a11 a12 a13;
        label = "Слой 1";
    }
    
    subgraph cluster_2 {
        color=white;
        node [style=solid, shape=circle];
        a21;
        label = "Слой 2";
    }

    subgraph cluster_3 {
        color=white;
        node [shape=plaintext];
        y;
        label = "Выход";
    }
    
    x1 [label=<x<sub>1</sub>>];
    x2 [label=<x<sub>2</sub>>];
    x3 [label=<x<sub>3</sub>>];

    y [label=<y>];

    x1 -> a11;
    x1 -> a12;
    x1 -> a13;
    
    x2 -> a11;
    x2 -> a12;
    x2 -> a13;
    
    x3 -> a11;
    x3 -> a12;
    x3 -> a13;
    
    a11 -> a21;
    a12 -> a21;
    a13 -> a21;
    
    a21 -> y;    
}