digraph Tree {
node [shape=box, style="filled", color="black"] ;
0 [label="x <= 12.5\ngini = 0.495\nsamples = 20\nvalue = [11, 9]", fillcolor="#e581392e"] ;
1 [label="x <= 8.5\ngini = 0.473\nsamples = 13\nvalue = [5, 8]", fillcolor="#399de560"] ;
0 -> 1 [labeldistance=2.5, labelangle=45, headlabel="True"] ;
2 [label="x <= 4.5\ngini = 0.494\nsamples = 9\nvalue = [5, 4]", fillcolor="#e5813933"] ;
1 -> 2 ;
3 [label="x <= 0.5\ngini = 0.32\nsamples = 5\nvalue = [1, 4]", fillcolor="#399de5bf"] ;
2 -> 3 ;
4 [label="gini = 0.0\nsamples = 1\nvalue = [1, 0]", fillcolor="#e58139ff"] ;
3 -> 4 ;
5 [label="gini = 0.0\nsamples = 4\nvalue = [0, 4]", fillcolor="#399de5ff"] ;
3 -> 5 ;
6 [label="gini = 0.0\nsamples = 4\nvalue = [4, 0]", fillcolor="#e58139ff"] ;
2 -> 6 ;
7 [label="gini = 0.0\nsamples = 4\nvalue = [0, 4]", fillcolor="#399de5ff"] ;
1 -> 7 ;
8 [label="x <= 18.5\ngini = 0.245\nsamples = 7\nvalue = [6, 1]", fillcolor="#e58139d4"] ;
0 -> 8 [labeldistance=2.5, labelangle=-45, headlabel="False"] ;
9 [label="gini = 0.0\nsamples = 6\nvalue = [6, 0]", fillcolor="#e58139ff"] ;
8 -> 9 ;
10 [label="gini = 0.0\nsamples = 1\nvalue = [0, 1]", fillcolor="#399de5ff"] ;
8 -> 10 ;
}